…
Come for the functionality

##Factors are useful when you have true categorical data and you want to override the ordering of character vectors to improve display
##They are also useful in modeling scenarios
##The forcats package provides a suite of useful tools that solve common problems with factors

Working with dates

##lubridate is the tidyverse-friendly package that makes dealing with dates a little easier
##It’s not one of the core tidyverse packages, hence it’s installed with install.packages(“tidyverse) but it’s not loaded with it, and needs to be explicitly loaded with library(lubridate)

hotels %>%
  select(starts_with("arrival_"))

## # A tibble: 119,390 × 4
##    arrival_date_year arrival_date_month arrival_date_week_numb… arrival_date_da…
##                <dbl> <chr>                                <dbl>            <dbl>
##  1              2015 July                                    27                1
##  2              2015 July                                    27                1
##  3              2015 July                                    27                1
##  4              2015 July                                    27                1
##  5              2015 July                                    27                1
##  6              2015 July                                    27                1
##  7              2015 July                                    27                1
##  8              2015 July                                    27                1
##  9              2015 July                                    27                1
## 10              2015 July                                    27                1
## # … with 119,380 more rows

# Calculate and visualise the number of bookings on any given arrival date.

Step 1. Construct dates

library(glue)
hotels %>%
  mutate(
    arrival_date = glue("{arrival_date_year} {arrival_date_month} {arrival_date_day_of_month}")
    ) %>% 
  relocate(arrival_date)

## # A tibble: 119,390 × 33
##    arrival_date hotel    is_canceled lead_time arrival_date_ye… arrival_date_mo…
##    <glue>       <chr>          <dbl>     <dbl>            <dbl> <chr>           
##  1 2015 July 1  Resort …           0       342             2015 July            
##  2 2015 July 1  Resort …           0       737             2015 July            
##  3 2015 July 1  Resort …           0         7             2015 July            
##  4 2015 July 1  Resort …           0        13             2015 July            
##  5 2015 July 1  Resort …           0        14             2015 July            
##  6 2015 July 1  Resort …           0        14             2015 July            
##  7 2015 July 1  Resort …           0         0             2015 July            
##  8 2015 July 1  Resort …           0         9             2015 July            
##  9 2015 July 1  Resort …           1        85             2015 July            
## 10 2015 July 1  Resort …           1        75             2015 July            
## # … with 119,380 more rows, and 27 more variables:
## #   arrival_date_week_number <dbl>, arrival_date_day_of_month <dbl>,
## #   stays_in_weekend_nights <dbl>, stays_in_week_nights <dbl>, adults <dbl>,
## #   children <dbl>, babies <dbl>, meal <chr>, country <chr>,
## #   market_segment <chr>, distribution_channel <chr>, is_repeated_guest <dbl>,
## #   previous_cancellations <dbl>, previous_bookings_not_canceled <dbl>,
## #   reserved_room_type <chr>, assigned_room_type <chr>, …

Step 2. Count bookings per date

hotels %>%
  mutate(arrival_date = glue("{arrival_date_year} {arrival_date_month} {arrival_date_day_of_month}")) %>%
  count(arrival_date)

## # A tibble: 793 × 2
##    arrival_date       n
##    <glue>         <int>
##  1 2015 August 1    110
##  2 2015 August 10   207
##  3 2015 August 11   117
##  4 2015 August 12   133
##  5 2015 August 13   107
##  6 2015 August 14   329
##  7 2015 August 15   190
##  8 2015 August 16    98
##  9 2015 August 17   188
## 10 2015 August 18    94
## # … with 783 more rows
…
## 
## Attaching package: 'lubridate'

## The following objects are masked from 'package:base':
## 
##     date, intersect, setdiff, union

hotels %>%
  mutate(
    arrival_date = ymd(glue("{arrival_date_year} {arrival_date_month} {arrival_date_day_of_month}"))
    ) %>% 
  relocate(arrival_date)

## # A tibble: 119,390 × 33
##    arrival_date hotel    is_canceled lead_time arrival_date_ye… arrival_date_mo…
##    <date>       <chr>          <dbl>     <dbl>            <dbl> <chr>           
##  1 2015-07-01   Resort …           0       342             2015 July            
##  2 2015-07-01   Resort …           0       737             2015 July            
##  3 2015-07-01   Resort …           0         7             2015 July            
##  4 2015-07-01   Resort …           0        13             2015 July            
##  5 2015-07-01   Resort …           0        14             2015 July            
##  6 2015-07-01   Resort …           0        14             2015 July            
##  7 2015-07-01   Resort …           0         0             2015 July            
##  8 2015-07-01   Resort …           0         9             2015 July            
##  9 2015-07-01   Resort …           1        85             2015 July            
## 10 2015-07-01   Resort …           1        75             2015 July            
## # … with 119,380 more rows, and 27 more variables:
## #   arrival_date_week_number <dbl>, arrival_date_day_of_month <dbl>,
## #   stays_in_weekend_nights <dbl>, stays_in_week_nights <dbl>, adults <dbl>,
## #   children <dbl>, babies <dbl>, meal <chr>, country <chr>,
## #   market_segment <chr>, distribution_channel <chr>, is_repeated_guest <dbl>,
## #   previous_cancellations <dbl>, previous_bookings_not_canceled <dbl>,
## #   reserved_room_type <chr>, assigned_room_type <chr>, …

Step 2. Count bookings per date

hotels %>%
  mutate(arrival_date = ymd(glue("{arrival_date_year} {arrival_date_month} {arrival_date_day_of_month}"))) %>% 
  count(arrival_date)

## # A tibble: 793 × 2
##    arrival_date     n
##    <date>       <int>
##  1 2015-07-01     122
##  2 2015-07-02      93
##  3 2015-07-03      56
##  4 2015-07-04      88
##  5 2015-07-05      53
##  6 2015-07-06      75
##  7 2015-07-07      54
##  8 2015-07-08      69
##  9 2015-07-09      80
## 10 2015-07-10      51
## # … with 783 more rows
…
