…
Pivot longer

rel_inc %>%
  rename(
    religion = `Religious tradition`,
    n = `Sample Size`
  ) %>%
  pivot_longer( 
    cols = -c(religion, n),   # all but religion and n 
    names_to = "income",  
    values_to = "proportion" 
  )

## # A tibble: 48 × 4
##    religion                   n income            proportion
##    <chr>                  <dbl> <chr>             <chr>     
##  1 Buddhist                 233 Less than $30,000 36%       
##  2 Buddhist                 233 $30,000-$49,999   18%       
##  3 Buddhist                 233 $50,000-$99,999   32%       
##  4 Buddhist                 233 $100,000 or more  13%       
##  5 Catholic                6137 Less than $30,000 36%       
##  6 Catholic                6137 $30,000-$49,999   19%       
##  7 Catholic                6137 $50,000-$99,999   26%       
##  8 Catholic                6137 $100,000 or more  19%       
##  9 Evangelical Protestant  7462 Less than $30,000 35%       
## 10 Evangelical Protestant  7462 $30,000-$49,999   22%       
## # … with 38 more rows

Calculate frequencies

rel_inc %>%
  rename(
    religion = `Religious tradition`,
    n = `Sample Size`
  ) %>%
  pivot_longer(
    cols = -c(religion, n), 
    names_to = "income", 
    values_to = "proportion"
  ) 

## # A tibble: 48 × 4
##    religion                   n income            proportion
##    <chr>                  <dbl> <chr>             <chr>     
##  1 Buddhist                 233 Less than $30,000 36%       
##  2 Buddhist                 233 $30,000-$49,999   18%       
##  3 Buddhist                 233 $50,000-$99,999   32%       
##  4 Buddhist                 233 $100,000 or more  13%       
##  5 Catholic                6137 Less than $30,000 36%       
##  6 Catholic                6137 $30,000-$49,999   19%       
##  7 Catholic                6137 $50,000-$99,999   26%       
##  8 Catholic                6137 $100,000 or more  19%       
##  9 Evangelical Protestant  7462 Less than $30,000 35%       
## 10 Evangelical Protestant  7462 $30,000-$49,999   22%       
## # … with 38 more rows
…
<img src="{{< blogdown/postref >}}index_files/figure-html/unnamed-chunk-7-1.png" width="672" />

Recode religion

rel_inc_long <- rel_inc_long %>%
  mutate(religion = case_when(
   religion == "Evangelical Protestant"           ~ "Ev. Protestant",
    religion == "Historically Black Protestant"    ~ "Hist. Black Protestant",
    religion == 'Unaffiliated (religious "nones")' ~ "Unaffiliated",
    TRUE                                           ~ religion
  ))
rel_inc_long

## # A tibble: 48 × 4
##    religion           n income            proportion
##    <chr>          <dbl> <chr>             <chr>     
##  1 Buddhist         233 Less than $30,000 36%       
##  2 Buddhist         233 $30,000-$49,999   18%       
##  3 Buddhist         233 $50,000-$99,999   32%       
##  4 Buddhist         233 $100,000 or more  13%       
##  5 Catholic        6137 Less than $30,000 36%       
##  6 Catholic        6137 $30,000-$49,999   19%       
##  7 Catholic        6137 $50,000-$99,999   26%       
##  8 Catholic        6137 $100,000 or more  19%       
##  9 Ev. Protestant  7462 Less than $30,000 35%       
## 10 Ev. Protestant  7462 $30,000-$49,999   22%       
## # … with 38 more rows
…
